<?xml version="1.0" encoding="UTF-8"?>
<svg width="563px" height="302px" viewBox="0 0 563 302" version="1.1" xmlns="http://www.w3.org/2000/svg" xmlns:xlink="http://www.w3.org/1999/xlink">
    <!-- Generator: Sketch 51.3 (57544) - http://www.bohemiancoding.com/sketch -->
    <title>Group</title>
    <desc>Created with Sketch.</desc>
    <defs></defs>
    <g id="Page-1" stroke="none" stroke-width="1" fill="none" fill-rule="evenodd">
        <g id="Home-v2" transform="translate(-550.000000, -1744.000000)">
            <g id="Group" transform="translate(552.000000, 1742.000000)">
                <g id="Group-23" transform="translate(0.000000, 91.000000)" fill="#FFFFFF">
                    <circle id="Oval-2" stroke="#FFFFFF" stroke-width="3" fill-opacity="0.304121377" cx="49" cy="49" r="49"></circle>
                    <circle id="Oval-2" cx="49" cy="49" r="4.26086957"></circle>
                </g>
                <path d="M49.2574039,139.5 L49.2574039,32.5" id="Line-4-Copy-2" stroke="#FFFFFF" opacity="0.5" stroke-linecap="square"></path>
                <path d="M263.209567,139.5 L263.209567,32.5" id="Line-4-Copy-3" stroke="#FFFFFF" opacity="0.5" stroke-linecap="square"></path>
                <path d="M156.209567,247.5 L156.209567,140.5" id="Line-4-Copy-5" stroke="#FFFFFF" opacity="0.5" stroke-linecap="square"></path>
                <path d="M371.209567,247.5 L371.209567,140.5" id="Line-4-Copy-6" stroke="#FFFFFF" opacity="0.5" stroke-linecap="square"></path>
                <path d="M477.709567,139.5 L477.709567,32.5" id="Line-4-Copy-4" stroke="#FFFFFF" opacity="0.5" stroke-linecap="square"></path>
                <g id="Group-23-Copy" transform="translate(77.000000, 60.000000)" fill="#FFFFFF">
                    <ellipse id="Oval-2" stroke="#FFFFFF" stroke-width="3" fill-opacity="0.304121377" cx="79" cy="79.5" rx="79" ry="79.5"></ellipse>
                    <ellipse id="Oval-2" cx="79" cy="79.5" rx="6.89261745" ry="6.93624161"></ellipse>
                </g>
                <g id="Group-23-Copy-2" transform="translate(194.000000, 71.000000)" fill="#FFFFFF">
                    <circle id="Oval-2" stroke="#FFFFFF" stroke-width="3" fill-opacity="0.304121377" cx="68.5" cy="68.5" r="68.5"></circle>
                    <circle id="Oval-2" cx="68.5" cy="68.5" r="5.84108527"></circle>
                </g>
                <g id="Group-23-Copy-3" transform="translate(317.000000, 86.000000)" fill="#FFFFFF">
                    <ellipse id="Oval-2" stroke="#FFFFFF" stroke-width="3" fill-opacity="0.304121377" cx="53.5" cy="54" rx="53.5" ry="54"></ellipse>
                    <ellipse id="Oval-2" cx="53.5" cy="54" rx="4.76732673" ry="4.81188119"></ellipse>
                </g>
                <g id="Group-23-Copy-4" transform="translate(396.000000, 58.000000)" fill="#FFFFFF">
                    <circle id="Oval-2" stroke="#FFFFFF" stroke-width="3" fill-opacity="0.304121377" cx="81.5" cy="81.5" r="81.5"></circle>
                    <circle id="Oval-2" cx="82.0326797" cy="82.0326797" r="7.45751634"></circle>
                </g>
                <text id="Análisis-3D-Copy" font-family="Montserrat-Medium, Montserrat" font-size="16" font-weight="400" letter-spacing="0.6399999" fill="#FFFFFF">
                    <tspan x="0.28400055" y="15">Análisis 3D</tspan>
                </text>
                <text id="Propuesta-de-valor-Copy" font-family="Montserrat-Medium, Montserrat" font-size="16" font-weight="400" letter-spacing="0.6399999" fill="#FFFFFF">
                    <tspan x="112.644" y="281">Propuesta </tspan>
                    <tspan x="122.22" y="300">de valor</tspan>
                </text>
                <text id="Ideación-Copy" font-family="Montserrat-Medium, Montserrat" font-size="16" font-weight="400" letter-spacing="0.6399999" fill="#FFFFFF">
                    <tspan x="225.38" y="15">Ideación</tspan>
                </text>
                <text id="Brief-de-arquitectur" font-family="Montserrat-Medium, Montserrat" font-size="16" font-weight="400" letter-spacing="0.6399999" fill="#FFFFFF">
                    <tspan x="337.448" y="281">Brief de </tspan>
                    <tspan x="317.288001" y="300">arquitectura</tspan>
                </text>
                <text id="Diseño-Copy" font-family="Montserrat-Medium, Montserrat" font-size="16" font-weight="400" letter-spacing="0.6399999" fill="#FFFFFF">
                    <tspan x="448.124" y="15">Diseño</tspan>
                </text>
            </g>
        </g>
    </g>
</svg>