<?xml version="1.0" encoding="UTF-8"?>
<svg width="274px" height="205px" viewBox="0 0 274 205" version="1.1" xmlns="http://www.w3.org/2000/svg" xmlns:xlink="http://www.w3.org/1999/xlink">
    <!-- Generator: Sketch 51.3 (57544) - http://www.bohemiancoding.com/sketch -->
    <title>Group 22</title>
    <desc>Created with Sketch.</desc>
    <defs></defs>
    <g id="Page-1" stroke="none" stroke-width="1" fill="none" fill-rule="evenodd">
        <g id="Design-thinking" transform="translate(-742.000000, -3105.000000)">
            <g id="Group-14" transform="translate(72.000000, 3107.000000)">
                <g id="Group-22" transform="translate(672.000000, 0.000000)">
                    <circle id="Oval-3-Copy-4" fill="#98DFF1" cx="171.5" cy="100.5" r="100.5"></circle>
                    <g id="Group-21" stroke="#333333" stroke-linecap="round" stroke-linejoin="round" stroke-width="4">
                        <path d="M134.666667,117.978863 C134.666667,136.078065 120.06416,150.75 102.052083,150.75 C84.0400066,150.75 69.4375,136.078065 69.4375,117.978863 C69.4375,99.8784563 84.0400066,85.2065217 102.052083,85.2065217 C120.06416,85.2065217 134.666667,99.8784563 134.666667,117.978863 Z" id="Stroke-1"></path>
                        <path d="M46.2916667,201 C46.2916667,176.867475 70.3149944,157.304348 99.9485041,157.304348 C129.582014,157.304348 153.604167,176.867475 153.604167,201" id="Stroke-3"></path>
                        <path d="M46.2916667,117.978261 C20.7254979,117.978261 0,96.4587167 0,69.9130435" id="Stroke-5"></path>
                        <polyline id="Stroke-7" points="42.0833333 107.054348 50.5 116.88587 42.0833333 126.717391"></polyline>
                        <path d="M155.708333,117.978261 C181.274502,117.978261 202,96.4587167 202,69.9130435" id="Stroke-9"></path>
                        <polyline id="Stroke-11" points="159.916667 107.054348 151.5 116.88587 159.916667 126.717391"></polyline>
                        <path d="M61.0208333,67.7282609 C41.3819444,49.0264296 41.3819444,18.7030626 61.0208333,0" id="Stroke-13"></path>
                        <polyline id="Stroke-15" points="63.125 56.8043478 63.125 69.9130435 50.5 69.9130435"></polyline>
                        <path d="M143.083333,67.7282609 C162.722222,49.0264296 162.722222,18.7030626 143.083333,0" id="Stroke-17"></path>
                        <polyline id="Stroke-19" points="138.875 56.8043478 138.875 69.9130435 151.5 69.9130435"></polyline>
                    </g>
                </g>
            </g>
        </g>
    </g>
</svg>