<?xml version="1.0" encoding="UTF-8"?>
<svg width="274px" height="204px" viewBox="0 0 274 204" version="1.1" xmlns="http://www.w3.org/2000/svg" xmlns:xlink="http://www.w3.org/1999/xlink">
    <!-- Generator: Sketch 51.3 (57544) - http://www.bohemiancoding.com/sketch -->
    <title>Group 25</title>
    <desc>Created with Sketch.</desc>
    <defs></defs>
    <g id="Page-1" stroke="none" stroke-width="1" fill="none" fill-rule="evenodd">
        <g id="Design-thinking" transform="translate(-742.000000, -4094.000000)">
            <g id="Group-17" transform="translate(72.000000, 4096.000000)">
                <g id="Group-25" transform="translate(672.000000, 0.000000)">
                    <circle id="Oval-3-Copy-3" fill="#98DFF1" cx="171.5" cy="100.5" r="100.5"></circle>
                    <g id="Group" stroke="#333333" stroke-linecap="round" stroke-linejoin="round" stroke-width="4">
                        <polygon id="Stroke-1" points="60.9366516 199.471483 90.6432692 199.471483 90.6432692 0 60.9366516 0"></polygon>
                        <path d="M60.9366516,42.7984791 L76.1708145,42.7984791" id="Stroke-3"></path>
                        <path d="M60.9366516,56.5551331 L76.1708145,56.5551331" id="Stroke-4"></path>
                        <path d="M60.9366516,17.5779468 L76.1708145,17.5779468" id="Stroke-5"></path>
                        <path d="M60.9366516,29.8060837 L76.1708145,29.8060837" id="Stroke-6"></path>
                        <path d="M60.9366516,97.8250951 L76.1708145,97.8250951" id="Stroke-7"></path>
                        <path d="M60.9366516,112.346008 L76.1708145,112.346008" id="Stroke-8"></path>
                        <path d="M60.9366516,71.8403042 L76.1708145,71.8403042" id="Stroke-9"></path>
                        <path d="M60.9366516,84.8326996 L76.1708145,84.8326996" id="Stroke-10"></path>
                        <polygon id="Stroke-16" points="207.184615 199.471483 105.877432 199.471483 105.877432 0"></polygon>
                        <polygon id="Stroke-18" points="174.431165 178.072243 124.920136 178.072243 124.920136 77.9543726"></polygon>
                        <path d="M40.3705317,199.471483 C37.4254559,199.471483 35.0385747,196.88901 35.0385747,193.702603 L35.0385747,55.9077511 L40.3705317,45.0912548 L45.7024887,55.9077511 L45.7024887,193.702603 C45.7024887,196.88901 43.3156075,199.471483 40.3705317,199.471483 Z" id="Stroke-23"></path>
                        <path d="M35.0385747,56.5551331 L45.7024887,56.5551331" id="Stroke-25"></path>
                        <g id="Group-28" transform="translate(0.000000, 125.338403)">
                            <path d="M60.3272851,0 L75.4091063,0" id="Stroke-11"></path>
                            <path d="M60.3272851,41.4968759 L75.4091063,41.4968759" id="Stroke-12"></path>
                            <path d="M60.3272851,54.6011524 L75.4091063,54.6011524" id="Stroke-13"></path>
                            <path d="M60.3272851,15.2883227 L75.4091063,15.2883227" id="Stroke-14"></path>
                            <path d="M60.3272851,28.3925993 L75.4091063,28.3925993" id="Stroke-15"></path>
                            <g id="Group-27" transform="translate(0.000000, 16.832598)">
                                <path d="M24.6431465,12.9437363 L24.6431465,57.4244734 L-0.000118500409,57.4244734 L-0.000118500409,12.9437363 C-0.000118500409,5.81932551 5.51605763,0.0446202647 12.321514,0.0446202647 C19.1269704,0.0446202647 24.6431465,5.81932551 24.6431465,12.9437363 Z" id="Stroke-19"></path>
                                <path d="M24.6431465,12.9437363 L-0.000118500409,12.9437363" id="Stroke-21"></path>
                            </g>
                        </g>
                    </g>
                </g>
            </g>
        </g>
    </g>
</svg>