<?xml version="1.0" encoding="UTF-8"?>
<svg width="138px" height="17px" viewBox="0 0 138 17" version="1.1" xmlns="http://www.w3.org/2000/svg" xmlns:xlink="http://www.w3.org/1999/xlink">
    <!-- Generator: Sketch 51.3 (57544) - http://www.bohemiancoding.com/sketch -->
    <title>nuevo-logo</title>
    <desc>Created with Sketch.</desc>
    <defs></defs>
    <g id="Page-1" stroke="none" stroke-width="1" fill="none" fill-rule="evenodd">
        <g id="01.-Home" transform="translate(-859.000000, -5678.000000)" fill="#FFFFFF" fill-rule="nonzero">
            <g id="Group-3" transform="translate(0.000000, 5604.000000)">
                <g id="nuevo-logo" transform="translate(859.000000, 74.000000)">
                    <polygon id="Rectangle-path" points="133.322034 0.779661017 138 0.779661017 138 6.23728814 133.322034 6.23728814"></polygon>
                    <g id="Group">
                        <path d="M10.3932203,9.51158923 C9.49860092,8.80581256 8.19187673,8.20496909 6.5056641,7.72621137 C4.95457627,7.30193819 3.86322342,6.84537787 3.26370416,6.36712463 C2.6905886,5.91106879 2.41205547,5.34604387 2.41205547,4.63875374 C2.41205547,3.88807777 2.72372265,3.27058624 3.36310632,2.7509651 C4.00766718,2.22579462 4.92247766,1.9604347 6.07958089,1.9604347 C7.19681972,1.9604347 8.11836055,2.27573878 8.81935285,2.89676171 C9.52293374,3.51879362 9.86514638,4.28258624 9.86514638,5.2284985 L9.86514638,5.4797328 L11.5197781,5.4797328 L11.5777627,5.30871186 L11.6129676,5.17098704 C11.6435131,3.78667597 11.1377011,2.62938385 10.1115809,1.72887537 C9.09426194,0.836438684 7.73783667,0.384418744 6.07906317,0.384418744 C4.50623112,0.384418744 3.18915254,0.783467597 2.16717411,1.5704666 C1.12655778,2.37310469 0.598483821,3.41133799 0.598483821,4.66044666 C0.598483821,5.88786241 1.0742681,6.87463809 2.0108228,7.59201795 C2.91061941,8.28064207 4.23080431,8.86130608 5.9289245,9.31584845 C7.42513405,9.75374277 8.4926718,10.2239242 9.10513405,10.7127717 C9.68860401,11.1794217 9.97283205,11.7535274 9.97283205,12.4678804 C9.97283205,13.2392403 9.63579661,13.8542094 8.94360555,14.3450748 C8.2358829,14.8485523 7.2967396,15.103318 6.15413251,15.103318 C5.03585824,15.103318 4.02785824,14.8248415 3.15912481,14.2744467 C2.31368875,13.7396909 1.90365485,12.9420977 1.90365485,11.8357587 L1.90365485,11.5850289 L0.260412943,11.5850289 L0.201910632,11.7550409 L0.167223421,11.8922612 C0.128912173,13.4506201 0.729984592,14.655334 1.95542681,15.4710887 C3.14773498,16.2661595 4.56059168,16.6687398 6.15516795,16.6687398 C7.75336826,16.6687398 9.10151002,16.28533 10.1623174,15.5296092 C11.2474576,14.7557268 11.7977935,13.7185025 11.7977935,12.445683 C11.7967581,11.2328973 11.3251156,10.2466261 10.3932203,9.51158923 Z" id="Shape"></path>
                        <path d="M23.2021202,0.383914257 C21.2875932,0.383914257 19.7380586,1.03268395 18.5964869,2.31357527 C17.4637165,3.58437687 16.8895655,5.25624526 16.8895655,7.28327218 L16.8895655,9.77997607 C16.8895655,11.8140658 17.4652696,13.4864387 18.6026995,14.7491685 C19.7468598,16.0224925 21.2979476,16.6687398 23.2129923,16.6687398 C25.1559938,16.6687398 26.7293436,16.0235015 27.8869646,14.750682 C29.0394083,13.4884566 29.623396,11.8155793 29.623396,9.78048056 L29.623396,7.28377667 C29.623396,5.25574078 29.0378552,3.5833679 27.8823051,2.3125663 C26.7184715,1.03268395 25.1440863,0.383914257 23.2021202,0.383914257 Z M27.8206965,7.26208375 L27.8206965,9.78048056 C27.8206965,11.3923151 27.4096271,12.6933858 26.5983606,13.6503968 C25.7886471,14.6069033 24.681245,15.0710309 23.2129923,15.0710309 C21.7820154,15.0710309 20.6999815,14.6063988 19.9047643,13.6468654 C19.1069584,12.686323 18.7026194,11.3847478 18.7026194,9.78048056 L18.7026194,7.26208375 C18.7026194,5.6709332 19.1048875,4.37692522 19.8995871,3.41587836 C20.691698,2.45836291 21.771661,1.99322632 23.2021202,1.99322632 C24.6631248,1.99322632 25.770527,2.45937188 26.5880062,3.4184008 C27.4065208,4.37894317 27.8206965,5.67244666 27.8206965,7.26208375 Z" id="Shape"></path>
                        <path d="M58.4976518,0.383914257 C56.5826071,0.383914257 55.0335901,1.03268395 53.8920185,2.31357527 C52.7592481,3.58437687 52.1850971,5.25624526 52.1850971,7.28327218 L52.1850971,9.77997607 C52.1850971,11.8140658 52.761319,13.4864387 53.8982311,14.7491685 C55.0429091,16.0224925 56.5939969,16.6687398 58.5080062,16.6687398 C60.4510077,16.6687398 62.0238398,16.0235015 63.1824961,14.750682 C64.3344222,13.4884566 64.9189276,11.8155793 64.9189276,9.78048056 L64.9189276,7.28377667 C64.9189276,5.25574078 64.332869,3.5833679 63.1778367,2.3125663 C62.0140031,1.03268395 60.4396179,0.383914257 58.4976518,0.383914257 Z M63.1157103,7.26208375 L63.1157103,9.78048056 C63.1157103,11.3923151 62.704641,12.6933858 61.8938921,13.6503968 C61.083661,14.6069033 59.9757411,15.0710309 58.5074884,15.0710309 C57.0770293,15.0710309 55.9944777,14.6063988 55.1997781,13.6468654 C54.4019723,12.686323 53.9976333,11.3847478 53.9976333,9.78048056 L53.9976333,7.26208375 C53.9976333,5.6709332 54.3999014,4.37692522 55.1946009,3.41587836 C55.9867119,2.45836291 57.0671926,1.99322632 58.4971341,1.99322632 C59.957621,1.99322632 61.0650231,2.45937188 61.88302,3.4184008 C62.7015347,4.37894317 63.1157103,5.67244666 63.1157103,7.26208375 Z" id="Shape"></path>
                        <path d="M46.8484438,5.89038485 L46.9064284,5.71734596 L46.9405978,5.58063011 C46.9701079,3.97232702 46.4368567,2.68840877 45.3553405,1.76318046 C44.2846965,0.848546361 42.8464715,0.383914257 41.0820832,0.383914257 C39.2586749,0.383914257 37.7666071,1.03924227 36.6472974,2.33274576 C35.5378243,3.61262812 34.9755809,5.27793819 34.9755809,7.2827677 L34.9755809,9.77947159 C34.9755809,11.7913639 35.5383421,13.4571785 36.6478151,14.7294935 C37.7676425,16.0159342 39.2597103,16.6677308 41.0826009,16.6677308 C42.8267982,16.6677308 44.2593282,16.1925045 45.3408444,15.255673 C46.4321972,14.3102652 46.9706256,13.0339143 46.9411156,11.4599163 L46.8489615,11.1501615 L45.1932943,11.1501615 L45.1932943,11.4013958 C45.1932943,12.6066142 44.8308906,13.532347 44.1169553,14.1538744 C43.3942188,14.7824646 42.3737935,15.1013001 41.0826009,15.1013001 C39.7774299,15.1013001 38.7595932,14.6245603 37.971624,13.6438385 C37.1789954,12.6570628 36.777245,11.3575055 36.777245,9.7789671 L36.777245,7.26057029 C36.777245,5.70372483 37.1789954,4.4117348 37.9721418,3.42243669 C38.7601109,2.43767896 39.7779476,1.95892124 41.0826009,1.95892124 C42.3722404,1.95892124 43.3921479,2.286333 44.113849,2.9310668 C44.8293374,3.57025125 45.1927766,4.48084945 45.1927766,5.63814158 L45.1927766,5.88937587 L46.8484438,5.88937587 L46.8484438,5.89038485 Z" id="Shape"></path>
                        <polygon id="Shape" points="75.7522096 13.4415394 75.6528074 13.7785364 75.5502989 13.4238824 70.7629461 0.605383848 68.8064838 0.605383848 74.8586256 16.4477747 76.4495778 16.4477747 82.5012018 0.605383848 80.555094 0.605383848"></polygon>
                        <polygon id="Shape" points="89.1093744 9.01971486 96.1700339 9.01971486 96.1700339 7.44268993 89.1093744 7.44268993 89.1093744 2.1813998 97.2189337 2.1813998 97.2189337 0.605383848 87.2978737 0.605383848 87.2978737 16.4477747 97.2732943 16.4477747 97.2732943 14.881344 89.1093744 14.881344"></polygon>
                        <path d="M111.901461,9.51158923 C111.006841,8.80581256 109.700117,8.20496909 108.012869,7.72621137 C106.461781,7.30193819 105.371464,6.84537787 104.771427,6.36712463 C104.198311,5.91106879 103.91926,5.34604387 103.91926,4.63875374 C103.91926,3.88807777 104.230928,3.27058624 104.870311,2.7509651 C105.51539,2.22579462 106.429165,1.9604347 107.586786,1.9604347 C108.703507,1.9604347 109.625565,2.27573878 110.327076,2.89676171 C111.030139,3.51879362 111.372351,4.28258624 111.372351,5.2284985 L111.372351,5.4797328 L113.026465,5.4797328 L113.085485,5.30871186 L113.120173,5.17098704 C113.1502,3.78667597 112.644388,2.62938385 111.619304,1.72887537 C110.601985,0.836438684 109.245042,0.384418744 107.586786,0.384418744 C106.012918,0.384418744 104.697393,0.783467597 103.674897,1.5704666 C102.633763,2.37310469 102.105689,3.41133799 102.105689,4.66044666 C102.105689,5.88786241 102.581473,6.87463809 103.518545,7.59201795 C104.417824,8.28114656 105.738527,8.86130608 107.435612,9.31584845 C108.931821,9.75374277 109.998841,10.2239242 110.612857,10.7127717 C111.196327,11.1794217 111.481072,11.7535274 111.481072,12.4678804 C111.481072,13.2392403 111.143519,13.8542094 110.45081,14.3450748 C109.743606,14.8485523 108.804462,15.103318 107.661337,15.103318 C106.542545,15.103318 105.535063,14.8248415 104.66633,14.2744467 C103.821411,13.7396909 103.411378,12.9420977 103.411378,11.8357587 L103.411378,11.5850289 L101.768136,11.5850289 L101.708598,11.7560499 L101.673911,11.8932702 C101.636117,13.4516291 102.236672,14.656343 103.461596,15.4720977 C104.654422,16.2671685 106.067797,16.6697488 107.661337,16.6697488 C109.260055,16.6697488 110.608197,16.286339 111.668487,15.5306181 C112.753109,14.7572403 113.30241,13.7195115 113.30241,12.4466919 C113.303445,11.2339063 112.831803,10.2466261 111.901461,9.51158923 Z" id="Shape"></path>
                        <polygon id="Shape" points="124.973362 0.770350947 124.912789 0.605383848 123.33012 0.605383848 117.356672 16.4477747 119.246866 16.4477747 124.12482 3.31094516 128.951519 16.4477747 130.841713 16.4477747"></polygon>
                    </g>
                </g>
            </g>
        </g>
    </g>
</svg>