<!-- Generated by IcoMoon.io -->
<svg version="1.1" xmlns="http://www.w3.org/2000/svg" width="20" height="20" viewBox="0 0 20 20">
<title>check1</title>
<path fill="#1c9819" d="M18.65 6.496c0 0.279-0.112 0.558-0.313 0.759l-9.598 9.598c-0.201 0.201-0.48 0.313-0.759 0.313s-0.558-0.112-0.759-0.313l-5.558-5.558c-0.201-0.201-0.313-0.48-0.313-0.759s0.112-0.558 0.313-0.759l1.518-1.518c0.201-0.201 0.48-0.313 0.759-0.313s0.558 0.112 0.759 0.313l3.281 3.292 7.321-7.333c0.201-0.201 0.48-0.313 0.759-0.313s0.558 0.112 0.759 0.313l1.518 1.518c0.201 0.201 0.313 0.48 0.313 0.759z"></path>
</svg>
