<!-- Generated by IcoMoon.io -->
<svg version="1.1" xmlns="http://www.w3.org/2000/svg" width="16" height="20" viewBox="0 0 16 20">
<title>close1</title>
<path fill="#e75d5d" d="M14.487 14.933c0 0.279-0.112 0.558-0.313 0.759l-1.518 1.518c-0.201 0.201-0.48 0.313-0.759 0.313s-0.558-0.112-0.759-0.313l-3.281-3.281-3.281 3.281c-0.201 0.201-0.48 0.313-0.759 0.313s-0.558-0.112-0.759-0.313l-1.518-1.518c-0.201-0.201-0.313-0.48-0.313-0.759s0.112-0.558 0.313-0.759l3.281-3.281-3.281-3.281c-0.201-0.201-0.313-0.48-0.313-0.759s0.112-0.558 0.313-0.759l1.518-1.518c0.201-0.201 0.48-0.313 0.759-0.313s0.558 0.112 0.759 0.313l3.281 3.281 3.281-3.281c0.201-0.201 0.48-0.313 0.759-0.313s0.558 0.112 0.759 0.313l1.518 1.518c0.201 0.201 0.313 0.48 0.313 0.759s-0.112 0.558-0.313 0.759l-3.281 3.281 3.281 3.281c0.201 0.201 0.313 0.48 0.313 0.759z"></path>
</svg>
